Lab4Wilson
…
datatable(report_09_13_2020)

report_03_13_2020 %>%
  group_by(Country_Region) %>%
  summarize(total_cases = sum(Confirmed, Deaths, Recovered))

## `summarise()` ungrouping output (override with `.groups` argument)

## # A tibble: 125 x 2
##    Country_Region      total_cases
##    <chr>                     <dbl>
##  1 Afghanistan                   7
##  2 Albania                      34
##  3 Algeria                      36
##  4 Andorra                       1
##  5 Antigua and Barbuda           1
##  6 Argentina                    33
##  7 Armenia                       8
##  8 Aruba                         2
##  9 Australia                   226
## 10 Austria                     511
## #  with 115 more rows

report_09_13_2020 %>%
  group_by(Country_Region) %>%
  summarize(total_cases = sum(Confirmed, Deaths, Recovered))

## `summarise()` ungrouping output (override with `.groups` argument)

## # A tibble: 188 x 2
##    Country_Region      total_cases
##    <chr>                     <dbl>
##  1 Afghanistan               71774
##  2 Albania                   18256
##  3 Algeria                   83903
##  4 Andorra                    2340
##  5 Angola                     4823
##  6 Antigua and Barbuda         189
##  7 Argentina                986402
##  8 Armenia                   88437
##  9 Australia                 50971
## 10 Austria                   60675
## #  with 178 more rows

report_03_13_2020 %>%
  group_by(Province_State, Country_Region) %>%
  filter(Country_Region == "US") %>%
  summarise(Confirmed)

## `summarise()` regrouping output by 'Province_State' (override with `.groups` argument)

## # A tibble: 53 x 3
## # Groups:   Province_State [53]
##    Province_State       Country_Region Confirmed
##    <chr>                <chr>              <dbl>
##  1 Alabama              US                     5
##  2 Alaska               US                     1
##  3 Arizona              US                     9
##  4 Arkansas             US                     6
##  5 California           US                   282
##  6 Colorado             US                    49
##  7 Connecticut          US                    11
##  8 Delaware             US                     4
##  9 Diamond Princess     US                    46
## 10 District of Columbia US                    10
## #  with 43 more rows

report_09_13_2020 %>%
 group_by(Province_State, Country_Region) %>%
  summarise(Confirmed_total = sum(Confirmed)) %>%
  filter(Country_Region == "US")

## `summarise()` regrouping output by 'Province_State' (override with `.groups` argument)

## # A tibble: 58 x 3
## # Groups:   Province_State [58]
##    Province_State       Country_Region Confirmed_total
##    <chr>                <chr>                    <dbl>
##  1 Alabama              US                      138755
##  2 Alaska               US                        6268
##  3 Arizona              US                      208512
##  4 Arkansas             US                       70219
##  5 California           US                      761728
##  6 Colorado             US                       61293
##  7 Connecticut          US                       54326
##  8 Delaware             US                       18849
##  9 Diamond Princess     US                          49
## 10 District of Columbia US                       14592
## #  with 48 more rows
…
