Lab5
…
## # A tibble: 6 x 7
##   Province_State Country_Region   Lat  Long Date       Confirmed Deaths
##   <chr>          <chr>          <dbl> <dbl> <date>         <dbl>  <dbl>
## 1 <NA>           Afghanistan     33.9  67.7 2020-01-22         0      0
## 2 <NA>           Afghanistan     33.9  67.7 2020-01-23         0      0
## 3 <NA>           Afghanistan     33.9  67.7 2020-01-24         0      0
## 4 <NA>           Afghanistan     33.9  67.7 2020-01-25         0      0
## 5 <NA>           Afghanistan     33.9  67.7 2020-01-26         0      0
## 6 <NA>           Afghanistan     33.9  67.7 2020-01-27         0      0

time_series_long_joined2 <- time_series_long_joined
time_series_long_joined2 %>%
  mutate(Deaths_per_Confirmed = Deaths / Confirmed)

## # A tibble: 64,638 x 8
##    Province_State Country_Region   Lat  Long Date       Confirmed Deaths
##    <chr>          <chr>          <dbl> <dbl> <date>         <dbl>  <dbl>
##  1 <NA>           Afghanistan     33.9  67.7 2020-01-22         0      0
##  2 <NA>           Afghanistan     33.9  67.7 2020-01-23         0      0
##  3 <NA>           Afghanistan     33.9  67.7 2020-01-24         0      0
##  4 <NA>           Afghanistan     33.9  67.7 2020-01-25         0      0
##  5 <NA>           Afghanistan     33.9  67.7 2020-01-26         0      0
##  6 <NA>           Afghanistan     33.9  67.7 2020-01-27         0      0
##  7 <NA>           Afghanistan     33.9  67.7 2020-01-28         0      0
##  8 <NA>           Afghanistan     33.9  67.7 2020-01-29         0      0
##  9 <NA>           Afghanistan     33.9  67.7 2020-01-30         0      0
## 10 <NA>           Afghanistan     33.9  67.7 2020-01-31         0      0
## #  with 64,628 more rows, and 1 more variable: Deaths_per_Confirmed <dbl>
…
